age,gender,country,state
37,"Female","United States","IL"
44,"M","United States","IN"
32,"Make","Canada","ON"
31,"Male","United Kingdom","WM"
31,null,"United States","TX"
33,"m","null","TN"
null,"f","United States","null"
39,"M","Canada","MB"
42,"woman","United States","IL"